{
	"info": {
		"_postman_id": "8b783a53-fb14-46d8-91eb-7f345bb9589e",
		"name": "JObs",
		"schema": "https://schema.getpostman.com/json/collection/v2.1.0/collection.json"
	},
	"item": [
		{
			"name": "Job Creation",
			"request": {
				"auth": {
					"type": "bearer",
					"bearer": [
						{
							"key": "token",
							"value": "eyJhbGciOiJIUzUxMiJ9.eyJzdWIiOiJuYWJpbmFhYSIsInJvbGVzIjpbeyJpZCI6IjVkN2ExZmQ4NGM1ZTZjMTJmNzQxM2ZmMSIsInJvbGUiOiJBRE1JTiJ9XSwiaWF0IjoxNTY4Mjg0ODg1LCJleHAiOjE1NjgyODg0ODV9.tcpXvMOEEkZvFzaey3QAJooTHflaVagNgtvSRZdApZkLpew7aJdWsBdS-BgKP3bpdsDa7YcmWE8QIX3shqdIHQ",
							"type": "string"
						}
					]
				},
				"method": "POST",
				"header": [
					{
						"key": "Content-Type",
						"name": "Content-Type",
						"value": "application/x-www-form-urlencoded",
						"type": "text"
					}
				],
				"body": {
					"mode": "formdata",
					"formdata": [
						{
							"key": "job",
							"value": "{\n    \"jobCategory\": \"IT\",\n    \"title\": \"JavaJUnior Developer\",\n    \"jobType\": \"Part-Time\",\n    \"jobDescription\": \"Working as part of a project team, the Junior Developer performs a variety of tasks related to designing, developing, troubleshooting, debugging, and implementing software code for websites, Web-based systems, mobile apps, and other applications. This individual applies knowledge from formal education and training and hands-on experience in software development to create technical solutions that meet the business objectives and technical requirements of IQ Solutions clients. The Junior Developer architects applications; produces high-quality, standards-based code; and adds to the group’s capabilities by assessing and mastering new technologies, techniques, or skills.\",\n    \"jobAttachment\": null,\n    \"jobImage\": null,\n   \n    \n    \"jobStatus\": \"Active\",\n    \"assignedAssignedPerson\": null,\n    \"partimeJobs\": {\n        \"workHourperDay\": 5,\n        \"paymentPerHour\": 20,\n        \"duration\": \"6 Month\"\n    },\n    \"fulltimeJobs\": null,\n    \"jobPostedId\": \"nabinaaa\",\n    \"advertisingRequest\": null,\n    \"jobApplicationList\": null,\n    \"jobAdditionalRequirnment\": {\n        \"experienceStatus\": \"No\",\n        \"experienceTime\": 4,\n        \"additionalRequirnment\": \"Yes\",\n        \"cvStatus\": true,\n        \"skillsRequired\": \"Java, Springboot, Hibernate, MOngodb, Documentation\"\n    },\n\n    \"updateDate\": null\n}",
							"type": "text"
						},
						{
							"key": "jobAttachememnt",
							"type": "file",
							"src": ""
						},
						{
							"key": "jobImages",
							"type": "file",
							"src": ""
						}
					]
				},
				"url": {
					"raw": "http://localhost:8080/manageJobs",
					"protocol": "http",
					"host": [
						"localhost"
					],
					"port": "8080",
					"path": [
						"manageJobs"
					]
				}
			},
			"response": []
		},
		{
			"name": "GetAllJobs",
			"request": {
				"auth": {
					"type": "bearer",
					"bearer": [
						{
							"key": "token",
							"value": "eyJhbGciOiJIUzUxMiJ9.eyJzdWIiOiJydWFpbiIsInJvbGVzIjpbeyJpZCI6IjVkN2I4MTRmNGM1ZTZjMWRlYzNkOWYzNyIsInJvbGUiOiJBRE1JTiJ9XSwiaWF0IjoxNTY4Mzc1MzY5LCJleHAiOjE1NjgzNzg5Njl9.DatZwgDeE73bnxde4pGnvi7qVXRLnJxRmEqqYbjSkb-WS_2IDn0F4D-EYeHb52PtZ64Fn4MewQ246fjWp_L7-A",
							"type": "string"
						}
					]
				},
				"method": "GET",
				"header": [],
				"body": {
					"mode": "raw",
					"raw": ""
				},
				"url": {
					"raw": "http://localhost:8080/manageJobs/",
					"protocol": "http",
					"host": [
						"localhost"
					],
					"port": "8080",
					"path": [
						"manageJobs",
						""
					]
				}
			},
			"response": []
		},
		{
			"name": "DeleteJobById",
			"request": {
				"auth": {
					"type": "bearer",
					"bearer": [
						{
							"key": "token",
							"value": "eyJhbGciOiJIUzUxMiJ9.eyJzdWIiOiJuYWJpbmFhYSIsInJvbGVzIjpbeyJpZCI6IjVkN2ExZmQ4NGM1ZTZjMTJmNzQxM2ZmMSIsInJvbGUiOiJBRE1JTiJ9XSwiaWF0IjoxNTY4Mjg5ODQxLCJleHAiOjE1NjgyOTM0NDF9.PfUFTEV7UKYeLbULC1bd-0QqBbswU4jgKOcfFF1b3oAsBmP9wEKWuT0Ue8tCGT2juXgQ64ZE954xehQEC1we1A",
							"type": "string"
						}
					]
				},
				"method": "DELETE",
				"header": [],
				"body": {
					"mode": "raw",
					"raw": ""
				},
				"url": {
					"raw": "http://localhost:8080/manageJobs/5d7a208d4c5e6c13b9ae044c",
					"protocol": "http",
					"host": [
						"localhost"
					],
					"port": "8080",
					"path": [
						"manageJobs",
						"5d7a208d4c5e6c13b9ae044c"
					]
				}
			},
			"response": []
		},
		{
			"name": "Get Job By User Search",
			"request": {
				"auth": {
					"type": "bearer",
					"bearer": [
						{
							"key": "token",
							"value": "eyJhbGciOiJIUzUxMiJ9.eyJzdWIiOiJydWFpbiIsInJvbGVzIjpbeyJpZCI6IjVkN2I4YWE1NGM1ZTZjMmE2YzNhYjY5YSIsInJvbGUiOiJBRE1JTiJ9XSwiaWF0IjoxNTY4MzgwOTk0LCJleHAiOjE1NjgzODQ1OTR9.4Ua3pAKuJeRP-aoP7_1yM9efQOAi_jgn2mHLLCEdVPgH2DqjR-73_mTrEpENHHNxGPJKuVl7DUrhnY0izPdJYw",
							"type": "string"
						}
					]
				},
				"method": "GET",
				"header": [],
				"body": {
					"mode": "raw",
					"raw": ""
				},
				"url": {
					"raw": "http://localhost:8080/manageJobs/searchJobByText/It",
					"protocol": "http",
					"host": [
						"localhost"
					],
					"port": "8080",
					"path": [
						"manageJobs",
						"searchJobByText",
						"It"
					]
				}
			},
			"response": []
		},
		{
			"name": "Get Job By User Tags",
			"request": {
				"auth": {
					"type": "bearer",
					"bearer": [
						{
							"key": "token",
							"value": "eyJhbGciOiJIUzUxMiJ9.eyJzdWIiOiJydWFpbiIsInJvbGVzIjpbeyJpZCI6IjVkN2I4YWE1NGM1ZTZjMmE2YzNhYjY5YSIsInJvbGUiOiJBRE1JTiJ9XSwiaWF0IjoxNTY4MzgwOTk0LCJleHAiOjE1NjgzODQ1OTR9.4Ua3pAKuJeRP-aoP7_1yM9efQOAi_jgn2mHLLCEdVPgH2DqjR-73_mTrEpENHHNxGPJKuVl7DUrhnY0izPdJYw",
							"type": "string"
						}
					]
				},
				"method": "GET",
				"header": [],
				"body": {
					"mode": "raw",
					"raw": ""
				},
				"url": {
					"raw": "http://localhost:8080/manageJobs/searchJobByTag",
					"protocol": "http",
					"host": [
						"localhost"
					],
					"port": "8080",
					"path": [
						"manageJobs",
						"searchJobByTag"
					]
				}
			},
			"response": []
		}
	]
}